{
    "Name": "Papaya",
    "Description": "A tropical fruit from the rainforest. It has a sweet flavor and a lot of natural juiciness.",
    "Category": "Fruit",
    "Edibility": 15,
    "Price": 135,
    "IsColored": false,
    "GiftTastes":
    {
        "Love": ["Haley", "Linus"],
        "Like": ["Abigail", "Alex", "Caroline", "Clint", "Demetrius", "Elliott", "Emily", "Evelyn", "George", "Gus", "Harvey", "Jas", "Jodi", "Kent", "Krobus", "Leah", "Lewis", "Marnie", "Maru", "Pam", "Penny", "Pierre", "Robin", "Sam", "Sandy", "Sebastian", "Shane", "Vincent", "Willy", "Wizard"],
        "Neutral": ["Dwarf"],
    },
    "Recipe": null,
    "NameLocalization":
    {
        "es": "Papaya",
        "ko": "파파야",
        "de": "Papaya",
         // "fr": "",
         // "hu": "",
         // "it": "",
         // "ja": "",
        "pt": "Mamão",
         // "ru": "",
         // "tr": "",
        "zh": "木瓜",
    },
    "DescriptionLocalization":
    {
        "es": "Una fruta tropical. Su jugo tiene un sabor dulce y natural.",
        "ko": "열대 우림에서 열대 과일. 달콤한 맛과 많은 즙을 머금고 있습니다.",
        "de": "Eine tropische Frucht aus den Regenwäldern. Sie hat ein natürlich süßes Aroma.",
         // "fr": "",
         // "hu": "",
         // "it": "",
         // "ja": "",
        "pt": "Uma fruta tropical da floresta tropical. Tem um sabor doce e muita suculência natural.",
         // "ru": "",
         // "tr": "",
        "zh": "来自热带雨林的热带水果。它有一种甜甜的味道和富含天然的果汁。",
    },
    "ContextTags": [
        "season_summer",
        "color_yellow_green",
        "fruit_tree_item",
        "fruit_item",
        "dye_medium"
    ]
}