{
    "Name": "Affogato",
    "Description": "Rich black coffee with a scoop of vanilla ice cream melting inside.",
    "Category": "ArtisanGoods",
    "Edibility": 40,
    "EdibleIsDrink": true,
    "EdibleBuffs":
    {
        "Farming": 0,
        "Fishing": 0,
        "Mining": 0,
        "Luck": 1,
        "Foraging": 0,
        "MaxStamina": 0,
        "MagnetRadius": 0,
        "Speed": 1,
        "Defense": 0,
        "Attack": 0,
        "Duration": 180,
    },
    "Price": 600,
    "IsColored": false,
    "Recipe": null,
    "NameLocalization":
    {
        "es": "Affogato",
         // "ko": "",
        "de": "ertrunken",
         // "fr": "",
         // "hu": "",
         // "it": "",
         // "ja": "",
         // "pt": "",
         // "ru": "",
         // "tr": "",
        "zh": "淹死的",
    },
    "DescriptionLocalization":
    {
        "es": "Café negro con una cucharada de helado de vainilla que se derrite por dentro.",
         // "ko": "",
        "de": "Reichhaltiger schwarzer Kaffee mit einer Kugel Vanilleeis, die darin schmilzt.",
         // "fr": "",
         // "hu": "",
         // "it": "",
         // "ja": "",
         // "pt": "",
         // "ru": "",
         // "tr": "",
        "zh": "浓郁的黑咖啡，里面融合着一勺香草冰淇淋。",
    }
}