{
    "Name": "Pineapple",
    "Description": "Sweet and sugary. It is versatile and can be used in desserts, salads, and drinks!",
    "Category": "Fruit",
    "Edibility": 18,
    "Price": 245,
    "IsColored": false,
    "GiftTastes":
    {
        "Love": ["Haley"],
        "Like": ["Alex", "Caroline", "Clint", "Demetrius", "Elliott", "Emily", "Evelyn", "George", "Gus", "Harvey", "Jas", "Jodi", "Kent", "Krobus", "Leah", "Lewis", "Linus", "Marnie", "Maru", "Pam", "Penny", "Pierre", "Robin", "Sam", "Sandy", "Sebastian", "Shane", "Vincent", "Willy", "Wizard"],
        "Dislike": ["Abigail", "Dwarf"],
    },
    "Recipe": null,
    "NameLocalization":
    {
        "es": "Piña",
        "ko": "파인애플",
        "de": "Ananas",
         // "fr": "",
         // "hu": "",
         // "it": "",
         // "ja": "",
        "pt": "Abacaxi",
         // "ru": "",
         // "tr": "",
        "zh": "菠萝",
    },
    "DescriptionLocalization":
    {
        "es": "Dulce y azucarada. ¡Es versátil y puede usarse en postres, ensaladas y bebidas!",
        "ko": "달콤하고 정말 달콤하다. 디저트, 샐러드, 그리고 음료에도 사용될 수 있는 만능 과일입니다.",
        "de": "Zuckersüß. Wird in Desserts, Salaten und Getränken verwendet!",
         // "fr": "",
         // "hu": "",
         // "it": "",
         // "ja": "",
        "pt": "Doce e açucarado. É versátil e pode ser usado em sobremesas, saladas e bebidas!",
         // "ru": "",
         // "tr": "",
        "zh": "很甜的、含糖的水果。这种水果在吃方面几乎是通用的，可以用于甜点、沙拉和饮料！",
    }
}