{
    "Name": "Orange Juice",
    "Description": "Freshly squeezed orange juice!",
    "Category": "Cooking",
    "Edibility": 33,
    "EdibleIsDrink": true,
    "EdibleBuffs": null,
    "Price": 450,
    "IsColored": false,
    "GiftTastes":
    {
        "Love": ["Gus", "Harvey"],
        "Like": ["Abigail", "Alex", "Caroline", "Clint", "Demetrius", "Dwarf", "Elliott", "Emily", "Evelyn", "George", "Haley", "Jas", "Jodi", "Kent", "Krobus", "Leah", "Lewis", "Linus", "Marnie", "Maru", "Pam", "Penny", "Pierre", "Robin", "Sam", "Sandy", "Sebastian", "Shane", "Vincent", "Willy", "Wizard"],
    },
    "Recipe":
    {
        "ResultCount": 1,
        "Ingredients": [
        {
            "Object": 635,
            "Count": 1,
        },
        {
            "Object": 245,
            "Count": 1,
        }],
        "CanPurchase": true,
        "PurchaseFrom": "Gus",
        "PurchasePrice": 500,
        "PurchaseRequirements": null,
    },
    "NameLocalization":
    {
        "es": "Jugo de naranja",
         // "ko": "",
         // "de": "",
         // "fr": "",
         // "hu": "",
         // "it": "",
         // "ja": "",
        "pt": "Suco de laranja",
         // "ru": "",
         // "tr": "",
        "zh": "橙汁",
    },
    "DescriptionLocalization":
    {
        "es": "¡Jugo de naranja recién exprimido!",
         // "ko": "",
         // "de": "",
         // "fr": "",
         // "hu": "",
         // "it": "",
         // "ja": "",
        "pt": "Suco de laranja espremido na hora!",
         // "ru": "",
         // "tr": "",
        "zh": "橙汁。鲜榨橙汁！",
    }
}