{
    "Name": "Pomelo Tree",
    "Product": "Pomelo",
    "SaplingName": "Pomelo Sapling",
    "SaplingDescription": "Takes 28 days to produce a mature Pomelo tree. Bears fruit in the winter. Only grows if the 8 surrounding tiles are empty.",

    "Season": "winter",

    "SaplingPurchasePrice": 3400,
    "SaplingPurchaseRequirements": [
        "y 2",
    ],
    "SaplingNameLocalization":
    {
        "es": "Brote de pomelo",
        "ko": "포멜로 묘목",
        "de": "Pomelo-Setzling (Sapling)",
         // "fr": "",
         // "hu": "",
         // "it": "",
         // "ja": "",
        "pt": "Muda de pomelo",
         // "ru": "",
         // "tr": "",
        "zh": "柚子树苗Sapling",
    },
    "SaplingDescriptionLocalization":
    {
        "es": "Toma 28 días para producir un árbol maduro de pomelo. Da fruto en el otoño. Solo crece si las 8 casillas circundantes están vacías.",
        "ko": "28일후에 성목이 됩니다. 겨울에 열매가 맺힙니다. 주변 8칸이 비어있어야 자랍니다.",
        "de": "Wächst in 28 Tagen zu einem reifen Pomelobaum heran. Trägt im Winter Früchte. Wächst nur, wenn die 8 umliegenden Felder leer sind.",
         // "fr": "",
         // "hu": "",
         // "it": "",
         // "ja": "",
        "pt": "Demora até 28 dias para produzir uma árvore de pomelo madura. Dá frutas no inverno. Só cresce se os 8 espaços adjacentes estiverem vazios.",
         // "ru": "",
         // "tr": "",
        "zh": "28天成熟为成年柚子树。冬天结果。只有在附近8块地块都空置的情况下才会成长。",
    }
}