{
    "Name": "Passion Fruit",
    "Product": "Passion Fruit",
    "SeedName": "Passion Fruit Seeds",
    "SeedDescription": "Plant these in spring. Takes 12 days to mature, but keeps producing after that. Grows on a trellis.",
    "Type": "Fruit",

    "Seasons": ["spring"],
    "Phases": [1, 2, 3, 4, 2, ],
    "RegrowthPhase": 5,
    "HarvestWithScythe": false,
    "TrellisCrop": true,
    "Colors": null,
    "Bonus":
    {
        "MinimumPerHarvest": 1,
        "MaximumPerHarvest": 3,
        "MaxIncreasePerFarmLevel": 5,
        "ExtraChance": 0.1,
    },
    "SeedPurchasePrice": 130,
    "SeedNameLocalization":
    {
        "es": "Semillas de maracuyá",
        "ko": "패션푸르트 씨앗",
        "de": "Passionsfrucht-Saat",
         // "fr": "",
         // "hu": "",
         // "it": "",
         // "ja": "",
        "pt": "Sementes de maracujá",
         // "ru": "",
         // "tr": "",
        "zh": "百香果种子",
    },
    "SeedDescriptionLocalization":
    {
        "es": "Plántalas en primavera. Toma 12 días para madurar, pero sigue produciendo después de eso. Crece en una espaldera.",
        "ko": "봄 작물. 성장하려면 12일이 소요되며, 수확한 후에도 계속 생산됩니다.",
        "de": "Pflanzen sie im Frühling. Wächst in 12 Tagen heran, kann aber danach mehrmals geerntet werden. Wächst an einem Rankgerüst.",
         // "fr": "",
         // "hu": "",
         // "it": "",
         // "ja": "",
        "pt": "Plante-as na primavera. Demora 12 dias para amadurecer e continua produzindo após a primeira colheita. Cresce em uma treliça.",
         // "ru": "",
         // "tr": "",
        "zh": "春天播种。12天成熟，收获之后循环生产。在架子上生长。",
    }
}