{
    "Name": "Oregano",
    "Description": "A warm and aromatic, yet slightly bitter, herb in the mint family.",
    "Category": "Vegetable",
    "Edibility": 5,
    "Price": 50,
    "IsColored": false,
    "GiftTastes":
    {
        "Like": ["Abigail", "Alex", "Caroline", "Clint", "Demetrius", "Dwarf", "Elliott", "Emily", "Evelyn", "George", "Gus", "Haley", "Harvey", "Jodi", "Kent", "Krobus", "Leah", "Lewis", "Linus", "Marnie", "Maru", "Pam", "Penny", "Pierre", "Robin", "Sam", "Sandy", "Sebastian", "Shane", "Willy", "Wizard"],
        "Neutral": ["Jas", "Vincent"],
    },
    "Recipe": null,
    "NameLocalization":
    {
        "es": "Oregano",
        "ko": "오레가노",
        "de": "Oregano",
         // "fr": "",
         // "hu": "",
         // "it": "",
         // "ja": "",
        "pt": "Orégano",
         // "ru": "",
         // "tr": "",
        "zh": "牛至",
    },
    "DescriptionLocalization":
    {
        "es": "Una hierba cálida, aromática, aunque ligeramente amarga y es familia de la menta.",
        "ko": "트과에 속하는 따뜻하고 향기롭지만 약간 쓴 허브.",
        "de": "Sehr aromatischer, leicht bitterer Geschmack. Gehört zur Familie der Minze.",
         // "fr": "",
         // "hu": "",
         // "it": "",
         // "ja": "",
        "pt": "Uma erva quente e aromática, embora ligeiramente amarga, da família das mentas.",
         // "ru": "",
         // "tr": "",
        "zh": "在薄荷家族中，这是一种温暖而芳香，但略带苦涩的草本植物。",
    }
}