{
    "Name": "Lime Tree",
    "Product": "Lime",
    "SaplingName": "Lime Sapling",
    "SaplingDescription": "Takes 28 days to produce a mature Lime tree. Bears fruit in the spring. Only grows if the 8 surrounding tiles are empty.",

    "Season": "spring",

    "SaplingPurchasePrice": 2000,
    "SaplingPurchaseRequirements": null,
       "SaplingNameLocalization":
    {
        "es": "Brote de limero",
        "ko": "라임 묘목",
        "de": "Limonen-Setzling (Sapling)",
         // "fr": "",
         // "hu": "",
         // "it": "",
         // "ja": "",
        "pt": "Muda de limeira",
         // "ru": "",
         // "tr": "",
        "zh": "青柠树苗Sapling",
    },
    "SaplingDescriptionLocalization":
    {
        "es": "Toma 28 días para producir un árbol de lima maduro. Da fruta en la primavera. Solo crece si las 8 casillas circundantes están vacías.",
        "ko": "28일후에 성목이 됩니다. 봄에 열매가 맺힙니다. 주변 8칸이 비어있어야 자랍니다.",
        "de": "Wächst in 28 Tagen zu einem reifen Limonenbaum heran. Trägt im Frühling Früchte. Wächst nur, wenn die 8 umliegenden Felder leer sind.",
         // "fr": "",
         // "hu": "",
         // "it": "",
         // "ja": "",
        "pt": "Demora até 28 dias para produzir uma limeira madura. Dá frutas na primavera. Só cresce se os 8 espaços adjacentes estiverem vazios.",
         // "ru": "",
         // "tr": "",
        "zh": "28天成熟为成年青柠树。春天结果。只有在附近8块地块都空置的情况下才会成长。",
    }
}