{
    "Name": "Bell Pepper",
    "Description": "The tamest pepper on the scale. A delicious addition to many meals!",
    "Category": "Vegetable",
    "Edibility": 8,
    "Price": 70,
    "IsColored": false,
    "GiftTastes":
    {
        "Like": ["Alex", "Caroline", "Clint", "Demetrius", "Dwarf", "Elliott", "Emily", "Evelyn", "George", "Gus", "Harvey", "Jodi", "Kent", "Krobus", "Leah", "Lewis", "Linus", "Marnie", "Maru", "Pam", "Penny", "Pierre", "Robin", "Sandy", "Sebastian", "Shane", "Willy", "Wizard"],
        "Dislike": ["Abigail", "Haley", "Jas", "Sam", "Vincent"],
    },
    "Recipe": null,
    "NameLocalization":
    {
        "es": "Pimiento",
        "ko": "피망",
        "de": "Paprika",
         // "fr": "",
         // "hu": "",
         // "it": "",
         // "ja": "",
        "pt": "Pimentão",
         // "ru": "",
         // "tr": "",
        "zh": "甜椒",
    },
    "DescriptionLocalization":
    {
        "es": "El pimiento más dócil en la escala. ¡Una deliciosa adición a muchas comidas!",
        "ko": "고추가 개량된 작물. 많은 음식에 들어가는 맛있는 재료.",
        "de": "Eine wohlschmeckende Beilage, bei vielen Gerichten.",
         // "fr": "",
         // "hu": "",
         // "it": "",
         // "ja": "",
        "pt": "Na escala de ardência, é a pimenta mais fraca. Uma deliciosa adição a muitas refeições!",
         // "ru": "",
         // "tr": "",
        "zh": "温和辣味程度的辣椒。很多菜单里的美味佳肴！",
    }
}