{
    "Name": "Shiitake Mushroom",
    "Product": "Shiitake Mushroom",
    "SeedName": "Shiitake Mushroom Starter",
    "SeedDescription": "Plant these in spring or fall. Takes 10 days to mature.",
    "Type": "Vegetable",

    "Seasons": ["spring", "fall"],
    "Phases": [3, 4, 3, ],
    "RegrowthPhase": -1,
    "HarvestWithScythe": false,
    "TrellisCrop": true,
    "Colors": null,
    "Bonus":
    {
        "MinimumPerHarvest": 2,
        "MaximumPerHarvest": 3,
        "MaxIncreasePerFarmLevel": 5,
        "ExtraChance": 0.1,
    },
    "SeedPurchasePrice": 500,
    "SeedPurchaseRequirements": [
        "y 4",
    ],
    
    "SeedNameLocalization":
    {
         // "es": "",
         // "ko": "",
         // "de": "",
         // "fr": "",
         // "hu": "",
         // "it": "",
         // "ja": "",
         // "pt": "",
         // "ru": "",
         // "tr": "",
         // "zh": "",
    },
    "SeedDescriptionLocalization":
    {
         // "es": "",
         // "ko": "",
         // "de": "",
         // "fr": "",
         // "hu": "",
         // "it": "",
         // "ja": "",
         // "pt": "",
         // "ru": "",
         // "tr": "",
         // "zh": "",
    }
}