{
    "Name": "Wasabi Peas",
    "Description": "Dried peas that have been dusted in wasabi.",
    "Category": "Cooking",
    "Edibility": 14,
    "EdibleIsDrink": false,
    "EdibleBuffs": null,
    "Price": 175,
    "IsColored": false,
    "GiftTastes":
    {
        "Love": ["Shane"],
        "Like": ["Alex", "Caroline", "Clint", "Demetrius", "Dwarf", "Elliott", "Emily", "Evelyn", "George", "Gus", "Harvey", "Jodi", "Kent", "Krobus", "Leah", "Lewis", "Linus", "Marnie", "Maru", "Pam", "Penny", "Pierre", "Robin", "Sandy", "Sebastian", "Willy", "Wizard"],
        "Dislike": ["Abigail", "Haley", "Jas", "Sam", "Vincent"],
    },
    "Recipe":
    {
        "ResultCount": 1,
        "Ingredients": [
        {
            "Object": "Wasabi Paste",
            "Count": 1,
        },
        {
            "Object": "Green Peas",
            "Count": 3,
        }],
        "CanPurchase": true,
        "PurchaseFrom": "Gus",
        "PurchasePrice": 950,
        "PurchaseRequirements": [
            "y 3",
        ],
    },
    "NameLocalization":
    {
        "es": "Guisantes con wasabi",
         // "ko": "",
         // "de": "",
         // "fr": "",
         // "hu": "",
         // "it": "",
         // "ja": "",
        "pt": "Ervilhas de Wasabi",
         // "ru": "",
         // "tr": "",
        "zh": "芥末味青豆",
    },
    "DescriptionLocalization":
    {
        "es": "Guisantes secos que se han espolvoreado con wasabi.",
         // "ko": "",
         // "de": "",
         // "fr": "",
         // "hu": "",
         // "it": "",
         // "ja": "",
        "pt": "Ervilhas secas que foram polvilhadas com wasabi.",
         // "ru": "",
         // "tr": "",
        "zh": "芥末味青豆。干青豆配上芥末。",
    }
}