{
    "Name": "Rapeseed",
    "Product": "Rapeseed Flower",
    "SeedName": "Rapeseed Seeds",
    "SeedDescription": "Plant these in spring or summer. Takes 8 days to mature.",
    "Type": "ArtisanGoods",

    "Seasons": ["spring", "summer"],
    "Phases": [1, 2, 1, 2, 2],
    "RegrowthPhase": -1,
    "HarvestWithScythe": true,
    "TrellisCrop": false,
    "Colors": null,
    "Bonus":
    {
        "MinimumPerHarvest": 2,
        "MaximumPerHarvest": 2,
        "MaxIncreasePerFarmLevel": 5,
        "ExtraChance": 0.0,
    },
    "SeedPurchasePrice": 100,
    "SeedPurchaseRequirements": [
        "y 3",
    ],

    "SeedNameLocalization":
    {
         // "es": "",
         // "ko": "",
         // "de": "",
         // "fr": "",
         // "hu": "",
         // "it": "",
         // "ja": "",
         // "pt": "",
         // "ru": "",
         // "tr": "",
         // "zh": "",
    },
    "SeedDescriptionLocalization":
    {
         // "es": "",
         // "ko": "",
         // "de": "",
         // "fr": "",
         // "hu": "",
         // "it": "",
         // "ja": "",
         // "pt": "",
         // "ru": "",
         // "tr": "",
         // "zh": "",
    }
}