{
    "Name": "Passion Fruit",
    "Description": "The passion fruit is a pepo, a type of berry, with a juicy interior filled with numerous seeds.",
    "Category": "Fruit",
    "Edibility": 15,
    "Price": 95,
    "IsColored": false,
    "GiftTastes":
    {
        "Love": ["Elliot"],
        "Like": ["Abigail", "Demetrius", "Haley", "Harvey", "Jodi", "Kent", "Leah", "Linus", "Marnie", "Maru", "Pam", "Penny", "Pierre", "Robin", "Sandy", "Sebastian", "Shane"],
        "Neutral": ["Alex", "Caroline", "Clint", "Dwarf", "Emily", "Evelyn", "George", "Gus", "Krobus", "Lewis", "Sam", "Wizard"],
        "Dislike": ["Jas", "Vincent", "Willy"],
    },
    "Recipe": null,
    "NameLocalization":
    {
        "es": "Maracuyá",
        "ko": "패션푸르트",
        "de": "Passionsfrucht",
         // "fr": "",
         // "hu": "",
         // "it": "",
         // "ja": "",
        "pt": "Maracujá",
         // "ru": "",
         // "tr": "",
        "zh": "百香果",
    },
    "DescriptionLocalization":
    {
        "es": "El maracuyá es un tipo de baya, con un jugoso interior lleno de numerosas semillas.",
        "ko": "열대 과일이며, 과육안에 수많은 씨앗과 수분이 많은 열매입니다.",
        "de": "Diese Passionsfrucht ist eine Pepo, eine Art Beere, mit einem saftigen Inneren, das mit zahlreichen Samen gefüllt ist.",
         // "fr": "",
         // "hu": "",
         // "it": "",
         // "ja": "",
        "pt": "O maracujá é um fruto carnoso, do tipo baga com interior suculento cheio de sementes.",
         // "ru": "",
         // "tr": "",
        "zh": "百香果是一种瓠果，浆果的一种，里面有多汁的内部和很多种子。瓠果是具有坚硬外果皮的浆果。",
    }
}