{
  "Name": "Americano",
  "Description": "A bitter drink that improves with expensive soda water.",
  "Category": "Cooking",
  "Edibility": 49,
  "EdibleIsDrink": true,
  "EdibleBuffs": {
    "Farming": 0,
    "Fishing": 0,
    "Mining": 0,
    "Luck": 0,
	"Foraging": 0,
	"MaxStamina": 0,
    "MagnetRadius": 0,
	"Speed": -1,
	"Defense": 0,
	"Attack": 0,
    "Duration": 100,
  },
  "Price": 704,
  "IsColored": false,
"CanPurchase": true,
    "PurchaseFrom": "Gus",
    "PurchasePrice": 704,
  "Recipe": {
    "ResultCount": 1,
    "Ingredients": [
      {
        "Object": "Club Soda",
        "Count": 1,
      },
      {
        "Object": "Vermouth",
        "Count": 1,
      },
      {
        "Object": 635,
        "Count": 1,
      }
    ],
    "CanPurchase": false,
  },

 "NameLocalization": { 
    "es": "Americano",
     // "ko": "",
     // "de": "",
     // "fr": "",
     // "hu": "",
     // "it": "",
     // "ja": "",
     // "pt": "",
     // "ru": "",
     // "tr": "",
    "zh": "美国佬",
  },
 "DescriptionLocalization": { 
    "es": "Una bebida amarga que mejora con agua de soda cara.",
     // "ko": "",
     // "de": "",
     // "fr": "",
     // "hu": "",
     // "it": "",
     // "ja": "",
     // "pt": "",
     // "ru": "",
     // "tr": "",
    "zh": "美国佬。这款鸡尾酒的苦味可以通过昂贵的苏打水来改善。",
  }
}