{
  "Name": "Club Soda",
  "Description": "It kinda tastes like seltzer.",
  "Category": "Cooking",
  "Edibility": -300,
  "EdibleIsDrink": true,
  "EdibleBuffs": null,
  "Price": 35,
  "IsColored": false,
  "Recipe": null,
 "CanPurchase": true,
    "PurchaseFrom": "Gus",
    "PurchasePrice": 150,
    "PurchaseRequirements": null,

 "NameLocalization": { 
    "es": "Club Soda",
     // "ko": "",
     // "de": "",
     // "fr": "",
     // "hu": "",
     // "it": "",
     // "ja": "",
     // "pt": "",
     // "ru": "",
     // "tr": "",
    "zh": "苏打水",
  },
 "DescriptionLocalization": { 
    "es": "Sabe un poco a seltzer.",
     // "ko": "",
     // "de": "",
     // "fr": "",
     // "hu": "",
     // "it": "",
     // "ja": "",
     // "pt": "",
     // "ru": "",
     // "tr": "",
    "zh": "苏打水。它有点像Seltz（一种矿泉水）的味道。",
  }

}