{
    "Name": "Iced Chocolate Donut",
    "Description": "A simple, iced chocolate donut.",
    "Category": "Cooking",
    "Edibility": 98,
    "EdibleIsDrink": false,
    "EdibleBuffs": null,
    "Price": 1150,
    "IsColored": false,
    "GiftTastes":
    {
        "Love": ["Abigail", "Evelyn", "Vincent", "Jas"],
        "Like": ["Alex", "Caroline", "Clint", "Demetrius", "Dwarf", "Emily", "Elliott", "George", "Gus", "Haley", "Harvey", "Kent", "Lewis", "Linus", "Marnie", "Maru", "Pam", "Penny", "Pierre", "Robin", "Sam", "Sandy", "Sebastian", "Shane", "Wizard"],
        "Dislike": ["Krobus", "Leah", "Willy", "Jodi"],
    },
    "Recipe":
    {
        "ResultCount": 1,
        "Ingredients": [
            {
                "Object": "Chocolate",
                "Count": 2,
            },

            {
                "Object": 246,
                "Count": 1,
            },
            {
                "Object": 245,
                "Count": 1,
            },
            {
                "Object": -5,
                "Count": 1,
            }
        ],
        "CanPurchase": false,
    },
    "NameLocalization":
    {
        "es": "Dona de chocolate glaseada",
         // "ko": "",
         // "de": "",
         // "fr": "",
         // "hu": "",
         // "it": "",
         // "ja": "",
        "pt": "Donut de Chocolate Gelado",
         // "ru": "",
         // "tr": "",
        "zh": "冰巧克力甜甜圈",
    },
    "DescriptionLocalization":
    {
        "es": "Simple, una dona de chocolate glaseada.",
         // "ko": "",
         // "de": "",
         // "fr": "",
         // "hu": "",
         // "it": "",
         // "ja": "",
        "pt": "Um simples donut de chocolate gelado.",
         // "ru": "",
         // "tr": "",
        "zh": "冰巧克力甜甜圈。一份简单的，冰的巧克力甜甜圈",
    }
}