{
    "Name": "Ghost Pepper Extract",
    "Description": "Even truly dedicated spice lovers can only tolerate a drop or two of this in food.",
    "Category": "ArtisanGoods",
    "Edibility": -300,
    "Price": 850,
    "IsColored": false,
    "Recipe": null,
    "GiftTastes":
    {
        "Love": ["Krobus", "Shane"],
        "Like": ["Abigail", "Kent", "Sam", "Sandy"],
        "Neutral": ["Alex", "Clint", "Demetrius", "Dwarf", "Emily", "George", "Gus", "Leah", "Linus", "Marnie", "Maru", "Pam", "Penny", "Robin", "Sebastian", "Willy", "Wizard"],
        "Dislike": ["Caroline", "Elliott", "Haley", "Harvey", "Jodi", "Lewis"],
        "Hate": ["Evelyn", "Jas", "Pierre", "Vincent"],
    },
    "NameLocalization":
    {
        "es": "Extracto de pimienta fantasma",
         // "ko": "",
        "de": "Geist-Pfeffer-Extrakt",
         // "fr": "",
         // "hu": "",
         // "it": "",
         // "ja": "",
         // "pt": "",
         // "ru": "",
         // "tr": "",
        "zh": "鬼椒提取液",
    },
    "DescriptionLocalization":
    {
        "es": "Incluso los amantes de las especias verdaderamente dedicados solo pueden tolerar una gota o dos de esto en la comida.",
         // "ko": "",
        "de": "Sogar wirklich engagierte Gewürzliebhaber können nur einen Tropfen oder zwei davon im Essen vertragen.",
         // "fr": "",
         // "hu": "",
         // "it": "",
         // "ja": "",
         // "pt": "",
         // "ru": "",
         // "tr": "",
        "zh": "即使是真正专注的辣椒爱好者也只能忍受食物中的添加一两滴这个提取液。",
    }
}