{
    "Name": "Pitcher Plant",
    "Description": "A swamp-dwelling plant with a bell-shaped bloom that traps insects.",
    "Category": "Flower",
    "Edibility": 0,
    "Price": 350,
    "IsColored": false,
    "Recipe": null,
    "GiftTastes":
    {
        "Love": ["Krobus", "Maru"],
	"Like": ["Abigail", "Sebastian", "Sam", "Sandy", "Harvey", "Dwarf"],
	"Dislike": ["Caroline", "Elliott", "Kent"],
        "Hate": ["Alex", "Clint", "Emily", "Evelyn", "George", "Gus", "Jodi", "Marnie", "Pam", "Penny", "Pierre", "Willy", "Wizard", "Haley", "Jas", "Vincent"],
    },
    "NameLocalization":
    {
         // "es": "",
         // "ko": "",
         // "de": "",
         // "fr": "",
         // "hu": "",
         // "it": "",
         // "ja": "",
         // "pt": "",
         // "ru": "",
         // "tr": "",
         // "zh": "",
    },
    "DescriptionLocalization":
    {
         // "es": "",
         // "ko": "",
         // "de": "",
         // "fr": "",
         // "hu": "",
         // "it": "",
         // "ja": "",
         // "pt": "",
         // "ru": "",
         // "tr": "",
         // "zh": "",
    }
}