{
    "Name": "Cashew",
    "Description": "A buttery nut that buds at the bottom of the cashew apple.",
    "Category": "Vegetable",
    "Edibility": 12,
    "Price": 100,
    "IsColored": false,
    "GiftTastes":
    {
        "Like": ["Abigail", "Alex", "Caroline", "Clint", "Demetrius", "Dwarf", "Elliott", "Emily", "Evelyn", "George", "Gus", "Haley", "Harvey", "Jas", "Jodi", "Kent", "Krobus", "Leah", "Lewis", "Linus", "Marnie", "Maru", "Pam", "Penny", "Pierre", "Robin", "Sam", "Sandy", "Sebastian", "Shane", "Vincent", "Willy", "Wizard"],
    },
    "Recipe": null,
    "NameLocalization":
    {
        "es": "Anacardo",
        "ko": "캐슈",
        "de": "Kaschunuss",
         // "fr": "",
         // "hu": "",
         // "it": "",
         // "ja": "",
        "pt": "Caju",
         // "ru": "",
         // "tr": "",
        "zh": "腰果",
    },
    "DescriptionLocalization":
    {
        "es": "Una nuez mantecosa que florece en el fondo de la manzana del anacardo.",
        "ko": "캐슈의 열매. 강낭콩 모양으로 생겼는데, 보통 구워서 그 알맹이를 먹습니다.",
        "de": "Kommt aus tropischem Klima, ein Teil vom Studentenfutter.",
         // "fr": "",
         // "hu": "",
         // "it": "",
         // "ja": "",
        "pt": "Uma noz amanteigada que brota no fundo da maçã de caju.",
         // "ru": "",
         // "tr": "",
        "zh": "一种黄油坚果，它在腰果梨的底部发芽，摘取成为腰果。",
    },
    "ContextTags": [
        "season_fall",
        "color_white",
        "fruit_tree_item",
        "nut_item",
    ]
}