{
    "Name": "Blueberry Honey Cake",
    "Description": "A sticky sweet with blueberries on top!",
    "Category": "Cooking",
    "Edibility": 38,
    "EdibleIsDrink": false,
    "EdibleBuffs": null,
    "Price": 690,
    "IsColored": false,
    "GiftTastes":
    {
        "Like": ["Alex", "Caroline", "Clint", "Demetrius", "Dwarf", "Elliott", "Emily", "Evelyn", "Gus", "Jas", "Jodi", "Kent", "Lewis", "Linus", "Marnie", "Pam", "Penny", "Pierre", "Robin", "Sam", "Sandy", "Shane", "Vincent", "Wizard"],
        "Neutral": ["Abigail", "George", "Haley", "Harvey", "Leah"],
        "Dislike": ["Krobus", "Maru", "Sebastian", "Willy"],
    },
    "Recipe":
    {
        "ResultCount": 1,
        "Ingredients": [
        {
            "Object": 340,
            "Count": 1,
        },
        {
            "Object": "Cream Cheese",
            "Count": 1,
        },
        {
            "Object": 258,
            "Count": 1,
        }],
        "CanPurchase": true,
        "PurchaseFrom": "Gus",
        "PurchasePrice": 2690,
        "PurchaseRequirements": [
            "z winter",
        ]
    },
    "NameLocalization":
    {
        "es": "Pastel de miel con arándanos",
         // "ko": "",
         // "de": "",
         // "fr": "",
         // "hu": "",
         // "it": "",
         // "ja": "",
        "pt": "Bolo de mel de mirtilo",
         // "ru": "",
         // "tr": "",
        "zh": "蓝莓蜂蜜蛋糕",
    },
    "DescriptionLocalization":
    {
        "es": "¡Un dulce pegajoso con arándanos encima!",
         // "ko": "",
         // "de": "",
         // "fr": "",
         // "hu": "",
         // "it": "",
         // "ja": "",
        "pt": "Um doce pegajoso com mirtilos por cima!",
         // "ru": "",
         // "tr": "",
        "zh": "蓝莓蜂蜜蛋糕。一份有着黏黏蜂蜜的甜点，上面有蓝莓！",
    }
}