{
    "Name": "Mango",
    "Product": "Mango",
    "SaplingName": "Mango Sapling",
    "SaplingDescription": "Takes 28 days to produce a mature Mango tree. Ready to harvest in the summer. Only grows if the 8 surrounding tiles are empty.",

    "Season": "summer",
    "SaplingPurchaseFrom": "Sandy",
    "SaplingPurchasePrice": 5500,
    "SaplingPurchaseRequirements": ["y 2", ],
    "SaplingNameLocalization":
    {
        "es": "Brote de mango",
        "ko": "망고 묘목",
        "de": "Mango-Setzling (Sapling)",
         // "fr": "",
         // "hu": "",
         // "it": "",
         // "ja": "",
        "pt": "Muda de manga",
         // "ru": "",
         // "tr": "",
        "zh": "芒果树苗Sapling",
    },
    "SaplingDescriptionLocalization":
    {
        "es": "Toma 28 días para producir un árbol de mango maduro. Listo para cosechar en verano. Solo crece si las 8 casillas circundantes están vacías.",
        "ko": "28일후에 성목이 됩니다. 여름에 열매가 맺힙니다. 주변 8칸이 비어있어야 자랍니다.",
        "de": "Wächst in 28 Tagen zu einem reifen Mangobaum heran. Trägt im Sommer Früchte. Wächst nur, wenn die 8 umliegenden Felder leer sind.",
         // "fr": "",
         // "hu": "",
         // "it": "",
         // "ja": "",
        "pt": "Demora até 28 dias para produzir uma árvore de manga madura. Dá frutas no verão. Só cresce se os 8 espaços adjacentes estiverem vazios.",
         // "ru": "",
         // "tr": "",
        "zh": "28天成熟为成年芒果树。夏天结果。只有在附近8块地块都空置的情况下才会成长。",
    }
}